A High-level R Package for Manipulation of Moodle Quiz Report • moodleQuiz
…
Combine & Adjust Grades of Quiz 1

How to choose the maximum score of each student and readjust maximum grades to 100?

Calling combine_grades() will do that in one step, plus it also cleans column names and extracts numeric student ID from Email address.

grades_ls$Quiz_1 %>%
  combine_grades(
    extract_id_from = "Email address", # Extract Student ID from Email
    id_regex = "[:digit:]+", # Regular expression to extract student ID
    choose_grade = "max", # Choose only maximum grade of each student
    new_max_grade = 100 # Adjust maximum grade to 100
  ) %>%
  select(Name, ID, starts_with("G"), starts_with("Q"))
#> # A tibble: 26 × 11
#>    Name          ID    Grade_100    Q1    Q2    Q3    Q4    Q5    Q6    Q7    Q8
#>    <chr>         <chr>     <dbl> <dbl> <dbl> <dbl> <dbl> <dbl> <dbl> <dbl> <dbl>
#>  1 Jada Roquemo… 017        94.7   2.6   2.6  23.7  21.1  21.1   2.6  10.5  10.5
#>  2 Ronin Ali     001        97.4   7.9   2.6  23.7  21.1  21.1   2.6   7.9  10.5
#>  3 Jerry Hoffpa… 002        94.7   2.6   2.6  23.7  21.1  21.1   2.6  10.5  10.5
#>  4 Nathan Babbi… 026       100     7.9   2.6  23.7  21.1  21.1   2.6  10.5  10.5
#>  5 Rohith Huynh  024       100     7.9   2.6  23.7  21.1  21.1   2.6  10.5  10.5
#>  6 Joy Ellis     013       100     7.9   2.6  23.7  21.1  21.1   2.6  10.5  10.5
#>  7 Jeremy Nelson 023        92.1   7.9   2.6  21.1  15.8  21.1   2.6  10.5  10.5
#>  8 Christopher … 003        94.7   2.6   2.6  23.7  21.1  21.1   2.6  10.5  10.5
#>  9 Israel Munoz  018       100     7.9   2.6  23.7  21.1  21.1   2.6  10.5  10.5
#> 10 Zubaida al-A… 022       100     7.9   2.6  23.7  21.1  21.1   2.6  10.5  10.5
#> # … with 16 more rows
…
Supply a list of data frames into combine_grades(), you can combine and weight grades from multiple quizzes into one data frame with a sum of student’s score in the Total_x column.

grades_ls %>% 
  combine_grades(
    extract_id_from = "Email address", # Extract Student ID from Email
    id_regex = "[:digit:]+", # Regular expression to extract student ID
    choose_grade = "max", # Choose only maximum grade of each student
    new_max_grade = c(25, 25, 50) # Adjust maximum grade to 100
  ) %>% 
  select(Name, ID, contains("Grade"), starts_with("Total"))
#> # A tibble: 26 × 6
#>    Name          ID    Quiz_1_Grade_25 Quiz_2_Grade_25 Quiz_3_Grade_50 Total_100
#>    <chr>         <chr>           <dbl>           <dbl>           <dbl>     <dbl>
#>  1 Jada Roquemo… 017              23.7            19.4            50.0      93.1
#>  2 Ronin Ali     001              24.4            20.4            46.4      91.1
#>  3 Jerry Hoffpa… 002              23.7            16.6            50.0      90.3
#>  4 Nathan Babbi… 026              25              18.5            50.0      93.4
#>  5 Rohith Huynh  024              25              25              50.0     100. 
#>  6 Joy Ellis     013              25              13.9            50.0      88.8
#>  7 Jeremy Nelson 023              23.0            25              46.4      94.4
#>  8 Christopher … 003              23.7            22.2            50.0      95.8
#>  9 Israel Munoz  018              25              21.3            50.0      96.2
#> 10 Zubaida al-A… 022              25              22.2            50.0      97.2
#> # … with 16 more rows
…
