…
Then, you can combine multiple Grades report to a single data frame
with: `combine_grades()`

``` r
moodleQuiz::combine_grades(grades_ls)
#> # A tibble: 26 × 9
#>    Name       ID       Quiz_1_State Quiz_1_Grade_10 Quiz_2_State Quiz_2_Grade_10
#>    <chr>      <chr>    <chr>                  <dbl> <chr>                  <dbl>
#>  1 Jada Roqu… u017@ex… Finished                9.47 Finished                7.77
#>  2 Ronin Ali  u001@ex… Finished                9.74 Finished                8.14
#>  3 Jerry Hof… u002@ex… Finished                9.47 Finished                6.66
#>  4 Nathan Ba… u026@ex… Finished               10    Finished                7.4 
#>  5 Rohith Hu… u024@ex… Finished               10    Finished               10   
#>  6 Joy Ellis  u013@ex… Finished               10    Finished                5.55
#>  7 Jeremy Ne… u023@ex… Finished                9.21 Finished               10   
#>  8 Christoph… u003@ex… Finished                9.47 Finished                8.88
#>  9 Israel Mu… u018@ex… Finished               10    Finished                8.51
#> 10 Zubaida a… u022@ex… Finished               10    Finished                8.88
#> # … with 16 more rows, and 3 more variables: Quiz_3_State <chr>,
#> #   Quiz_3_Grade_10 <dbl>, Total_30 <dbl>
```
