Combine Student's Responses — combine_resp • moodleQuiz
…
    Value

A data.frame, its output content is determined by class of its first argument: data.
If the data is a data.frame; the output is an encoded, filtered, and cleaned data.frame of Moodle Responses report.

If the data is a named list of data.frame; the output is the same as previously described, but all Moodle Quiz reports are full-joined together by column "Name" and "ID".
So that, "Response" columns from each data.frame are sit together in a single data.frame. The resulting response columns are in this format (default): "<listNames>-Responses-<number>"

    Examples

# Combine Response from 1 Quiz
combine_resp(responses_ls$Quiz_1, id_regex = "[:digit:]+")
#> # A tibble: 26 × 10
#>    Name   ID    Insti…¹ Depar…² State Encode Started             Grade…³ Respo…⁴
#>    <chr>  <chr> <lgl>   <lgl>   <chr>  <dbl> <dttm>              <chr>   <chr>  
#>  1 Lance… 004   NA      NA      Fini…      1 2022-04-19 19:19:00 Not ye… intuit…
#>  2 Sydne… 002   NA      NA      Fini…      1 2022-04-19 16:32:00 Not ye… Tarzan…
#>  3 Itzel… 016   NA      NA      Fini…      1 2022-04-19 12:36:00 Not ye… not to…
#>  4 Hakam… 001   NA      NA      Fini…      1 2022-04-19 06:46:00 Not ye… “A der…
#>  5 Hamoo… 012   NA      NA      Fini…      1 2022-04-19 03:23:00 Not ye… At las…
#>  6 Domin… 007   NA      NA      Fini…      1 2022-04-19 09:03:00 Not ye… the po…
#>  7 Zhjad… 009   NA      NA      Fini…      1 2022-04-19 02:17:00 Not ye… upon t…
#>  8 Jorda… 013   NA      NA      Fini…      1 2022-04-19 12:10:00 Not ye… “In ti…
#>  9 Kevin… 025   NA      NA      Fini…      1 2022-04-19 03:41:00 Not ye… A FRIE…
#> 10 Angel… 018   NA      NA      Fini…      1 2022-04-19 01:48:00 Not ye… very f…
#> # … with 16 more rows, 1 more variable: Response_2 <chr>, and abbreviated
#> #   variable names ¹​Institution, ²​Department, ³​Grade_2.00, ⁴​Response_1

# Combine Response from multiple quizzes into 1 data frame
combine_resp(responses_ls, id_regex = "[:digit:]+")
#> # A tibble: 26 × 9
#>    Name            ID    Quiz_…¹ Quiz_…² Quiz_…³ Quiz_…⁴ Quiz_…⁵ Quiz_…⁶ Quiz_…⁷
#>    <chr>           <chr> <chr>   <chr>   <chr>   <chr>   <chr>   <chr>   <chr>  
#>  1 Lance Xiong     004   Finish… intuit… she re… Finish… The ne… you in… While …
#>  2 Sydney Halamic… 002   Finish… Tarzan… the me… Finish… “I sho… “God k… in bri…
#>  3 Itzel Palomino  016   Finish… not to… -       Finish… left s… you kn… in the…
#>  4 Hakam el-Farooq 001   Finish… “A der… “I fea… Finish… Toward… his pr… close …
#>  5 Hamood al-Farha 012   Finish… At las… Findin… Finish… necess… victor… there …
#>  6 Dominique Solis 007   Finish… the po… though… Finish… a cowa… Tarzan… were f…
#>  7 Zhjade Alarid   009   Finish… upon t… and fo… Finish… Hazel … -       they f…
#>  8 Jordan Tan      013   Finish… “In ti… warrio… Finish… -       freedo… The ap…
#>  9 Kevin Vasquez   025   Finish… A FRIE… Thus, … Finish… not da… west, … last C…
#> 10 Angela Carrillo 018   Finish… very f… “they … Finish… “I sho… they c… -      
#> # … with 16 more rows, and abbreviated variable names ¹​Quiz_1_State,
#> #   ²​Quiz_1_Response_1, ³​Quiz_1_Response_2, ⁴​Quiz_2_State, ⁵​Quiz_2_Response_1,
#> #   ⁶​Quiz_2_Response_2, ⁷​Quiz_2_Response_3
…
