Combine Grades — combine_grades • moodleQuiz
…
    Value

A data.frame, its output content is determined by class of its first argument: data.
If the data is a data.frame; the output is a cleaned data.frame of Moodle Grades report, whether it was adjusted or filtered depends on other arguments.

If the data is a named list of data.frame; the output is the same as previously described, but all Moodle Grades reports are full-joined together by column "Name" and "ID".
So that, "Grades_" columns from each data.frame are sit together in a single data.frame, and "Total_" column is added at the last column to indicate sum of all quizzes grades.

    Examples

# Combine and Readjust Grades of Quiz 1
combine_grades(grades_ls$Quiz_1,
               id_regex = "[:digit:]+",
               new_max_grade = 100)
#> # A tibble: 26 × 15
#>    Name      ID    Insti…¹ Depar…² State Grade…³ Started                Q1    Q2
#>    <chr>     <chr> <lgl>   <lgl>   <chr>   <dbl> <dttm>              <dbl> <dbl>
#>  1 Jada Roq… 017   NA      NA      Fini…    94.7 2021-06-02 08:28:00   2.6   2.6
#>  2 Ronin Ali 001   NA      NA      Fini…    97.4 2021-06-02 14:21:00   7.9   2.6
#>  3 Jerry Ho… 002   NA      NA      Fini…    94.7 2021-06-02 16:04:00   2.6   2.6
#>  4 Nathan B… 026   NA      NA      Fini…   100   2021-06-02 00:00:00   7.9   2.6
#>  5 Rohith H… 024   NA      NA      Fini…   100   2021-06-02 14:47:00   7.9   2.6
#>  6 Joy Ellis 013   NA      NA      Fini…   100   2021-06-02 03:56:00   7.9   2.6
#>  7 Jeremy N… 023   NA      NA      Fini…    92.1 2021-06-02 08:09:00   7.9   2.6
#>  8 Christop… 003   NA      NA      Fini…    94.7 2021-06-02 00:49:00   2.6   2.6
#>  9 Israel M… 018   NA      NA      Fini…   100   2021-06-02 15:36:00   7.9   2.6
#> 10 Zubaida … 022   NA      NA      Fini…   100   2021-06-02 23:11:00   7.9   2.6
#> # … with 16 more rows, 6 more variables: Q3 <dbl>, Q4 <dbl>, Q5 <dbl>,
#> #   Q6 <dbl>, Q7 <dbl>, Q8 <dbl>, and abbreviated variable names ¹​Institution,
#> #   ²​Department, ³​Grade_100

# Combine Grades of All Quizzes
combine_grades(grades_ls,
               id_regex = "[:digit:]+")
#> # A tibble: 26 × 9
#>    Name            ID    Quiz_…¹ Quiz_…² Quiz_…³ Quiz_…⁴ Quiz_…⁵ Quiz_…⁶ Total…⁷
#>    <chr>           <chr> <chr>     <dbl> <chr>     <dbl> <chr>     <dbl>   <dbl>
#>  1 Jada Roquemore  017   Finish…    9.47 Finish…    7.77 Finish…    9.99    27.2
#>  2 Ronin Ali       001   Finish…    9.74 Finish…    8.14 Finish…    9.28    27.2
#>  3 Jerry Hoffpauir 002   Finish…    9.47 Finish…    6.66 Finish…    9.99    26.1
#>  4 Nathan Babbitt  026   Finish…   10    Finish…    7.4  Finish…    9.99    27.4
#>  5 Rohith Huynh    024   Finish…   10    Finish…   10    Finish…    9.99    30.0
#>  6 Joy Ellis       013   Finish…   10    Finish…    5.55 Finish…    9.99    25.5
#>  7 Jeremy Nelson   023   Finish…    9.21 Finish…   10    Finish…    9.28    28.5
#>  8 Christopher Di… 003   Finish…    9.47 Finish…    8.88 Finish…    9.99    28.3
#>  9 Israel Munoz    018   Finish…   10    Finish…    8.51 Finish…    9.99    28.5
#> 10 Zubaida al-Att… 022   Finish…   10    Finish…    8.88 Finish…    9.99    28.9
#> # … with 16 more rows, and abbreviated variable names ¹​Quiz_1_State,
#> #   ²​Quiz_1_Grade_10, ³​Quiz_2_State, ⁴​Quiz_2_Grade_10, ⁵​Quiz_3_State,
#> #   ⁶​Quiz_3_Grade_10, ⁷​Total_30
…
