Count Student's Responses — count_resp • moodleQuiz
…
If the data is a named list of data.frame; the output is the same as previously described, but all Moodle Quiz reports are full-joined together by column "Name" and "ID".
So that, "Count_resp" columns from each data.frame are sit together in a single data.frame, and "Total" column is added at the last column to indicate total count.

    Details

    Counting Mechanism:
count_resp() gives 1 count to 1 responses cell if one or more characters were found.
Blank or "-" (dash) response will not be counted.

    Examples

# Count Responses of Quiz 1
count_resp(responses_ls$Quiz_1,
           id_regex = "[:digit:]+")
#> # A tibble: 26 × 9
#>    Name            ID    Institution Department State Encode Started            
#>    <chr>           <chr> <lgl>       <lgl>      <chr>  <dbl> <dttm>             
#>  1 Lance Xiong     004   NA          NA         Fini…      1 2022-04-19 19:19:00
#>  2 Sydney Halamic… 002   NA          NA         Fini…      1 2022-04-19 16:32:00
#>  3 Itzel Palomino  016   NA          NA         Fini…      1 2022-04-19 12:36:00
#>  4 Hakam el-Farooq 001   NA          NA         Fini…      1 2022-04-19 06:46:00
#>  5 Hamood al-Farha 012   NA          NA         Fini…      1 2022-04-19 03:23:00
#>  6 Dominique Solis 007   NA          NA         Fini…      1 2022-04-19 09:03:00
#>  7 Zhjade Alarid   009   NA          NA         Fini…      1 2022-04-19 02:17:00
#>  8 Jordan Tan      013   NA          NA         Fini…      1 2022-04-19 12:10:00
#>  9 Kevin Vasquez   025   NA          NA         Fini…      1 2022-04-19 03:41:00
#> 10 Angela Carrillo 018   NA          NA         Fini…      1 2022-04-19 01:48:00
#> # … with 16 more rows, and 2 more variables: Grade_2.00 <chr>,
#> #   Count_Resp_2 <int>

# Count Responses from All Quizzes
count_resp(responses_ls,
           id_regex = "[:digit:]+")
#> # A tibble: 26 × 7
#>    Name        ID    Quiz_1_State Quiz_1_Count_Re… Quiz_2_State Quiz_2_Count_Re…
#>    <chr>       <chr> <chr>                   <int> <chr>                   <int>
#>  1 Lance Xiong 004   Finished                    2 Finished                    3
#>  2 Sydney Hal… 002   Finished                    2 Finished                    3
#>  3 Itzel Palo… 016   Finished                    1 Finished                    3
#>  4 Hakam el-F… 001   Finished                    2 Finished                    3
#>  5 Hamood al-… 012   Finished                    2 Finished                    3
#>  6 Dominique … 007   Finished                    2 Finished                    3
#>  7 Zhjade Ala… 009   Finished                    2 Finished                    2
#>  8 Jordan Tan  013   Finished                    2 Finished                    2
#>  9 Kevin Vasq… 025   Finished                    2 Finished                    3
#> 10 Angela Car… 018   Finished                    2 Finished                    2
#> # … with 16 more rows, and 1 more variable: Total_5 <int>
…
