moodleQuiz • moodleQuiz
…
Calling this function would

Clean and format column names

Encode State column resulting in Encode column, “Finished” attempt encoded as 1, and “In progress” attempt encoded as 0.

Filter rows by time and encoding. By default, It choose the first maximum score of each student.

Check Submission of Quiz 1

grades_ls$Quiz_1 %>%
  check_sub(id_regex = "[:digit:]+") %>%
  select(Name, ID, State, Encode)
#> # A tibble: 26 × 4
#>    Name               ID    State    Encode
#>    <chr>              <chr> <chr>     <dbl>
#>  1 Jada Roquemore     017   Finished      1
#>  2 Ronin Ali          001   Finished      1
#>  3 Jerry Hoffpauir    002   Finished      1
#>  4 Nathan Babbitt     026   Finished      1
#>  5 Rohith Huynh       024   Finished      1
#>  6 Joy Ellis          013   Finished      1
#>  7 Jeremy Nelson      023   Finished      1
#>  8 Christopher Dillon 003   Finished      1
#>  9 Israel Munoz       018   Finished      1
#> 10 Zubaida al-Attar   022   Finished      1
#> # … with 16 more rows

Check Submission of All Quizzes

You can check whether student submit multiple quizzes by passing a list of data frames as show here as grades_ls.

grades_ls %>%
  check_sub(id_regex = "[:digit:]+") %>%
  select(Name, ID, ends_with("Encode"), Total)
#> # A tibble: 26 × 6
#>    Name               ID    Quiz_1_Encode Quiz_2_Encode Quiz_3_Encode Total
#>    <chr>              <chr>         <dbl>         <dbl>         <dbl> <dbl>
#>  1 Jada Roquemore     017               1             1             1     3
#>  2 Ronin Ali          001               1             1             1     3
#>  3 Jerry Hoffpauir    002               1             1             1     3
#>  4 Nathan Babbitt     026               1             1             1     3
#>  5 Rohith Huynh       024               1             1             1     3
#>  6 Joy Ellis          013               1             1             1     3
#>  7 Jeremy Nelson      023               1             1             1     3
#>  8 Christopher Dillon 003               1             1             1     3
#>  9 Israel Munoz       018               1             1             1     3
#> 10 Zubaida al-Attar   022               1             1             1     3
#> # … with 16 more rows
…
Clean and format column names

Filter rows by time and encoding. By default, It choose the first maximum score of each student.

Return data frame with Response_x columns

Combine Response of Quiz 1

This would get similar result to check_sub(), except it also return Response_* column and has an ability to split Cloze columns.

responses_ls$Quiz_1 %>%
  combine_resp(id_regex = "[:digit:]+") %>%
  select(Name, ID, starts_with("R"))
#> # A tibble: 26 × 4
#>    Name             ID    Response_1                                     Respo…¹
#>    <chr>            <chr> <chr>                                          <chr>  
#>  1 Lance Xiong      004   intuitively singled out as the instigator of … she re…
#>  2 Sydney Halamicek 002   Tarzan’s face was a pathetic expression of di… the me…
#>  3 Itzel Palomino   016   not to harm you if you will return our ivory … -      
#>  4 Hakam el-Farooq  001   “A derelict,” was the terse explanation of th… “I fea…
#>  5 Hamood al-Farha  012   At last they passed through two great walls a… Findin…
#>  6 Dominique Solis  007   the powers of the ape-man and overestimated t… though…
#>  7 Zhjade Alarid    009   upon the unsuspecting woman. A faint rustling… and fo…
#>  8 Jordan Tan       013   “In time to save you from death upon the alta… warrio…
#>  9 Kevin Vasquez    025   A FRIEND.                                      Thus, …
#> 10 Angela Carrillo  018   very faithful and loyal wife, but as she had … “they …
#> # … with 16 more rows, and abbreviated variable name ¹​Response_2
…
Filter rows by time and encoding. By default, It choose the first maximum score of each student.

Return data frame with Count_Resp_x columns

In contrast to combine_resp(), count_resp() returns counts of how many responses do each students answered.

Beware that count_resp() counts any non-blank answers that is not - (dash) as an answers, even though it is not appropriate to the question.

Count Responses of Quiz 1

responses_ls$Quiz_1 %>%
  count_resp(id_regex = "[:digit:]+") %>%
  select(Name, ID, starts_with("Count"))
#> # A tibble: 26 × 3
#>    Name             ID    Count_Resp_2
#>    <chr>            <chr>        <int>
#>  1 Lance Xiong      004              2
#>  2 Sydney Halamicek 002              2
#>  3 Itzel Palomino   016              1
#>  4 Hakam el-Farooq  001              2
#>  5 Hamood al-Farha  012              2
#>  6 Dominique Solis  007              2
#>  7 Zhjade Alarid    009              2
#>  8 Jordan Tan       013              2
#>  9 Kevin Vasquez    025              2
#> 10 Angela Carrillo  018              2
#> # … with 16 more rows

Count Responses from All Quizzes

Calling count_resp() on a list of data frame would yields counts of responses for all quizzes and the total counts is calculated.

responses_ls %>%
  count_resp(id_regex = "[:digit:]+") %>%
  select(Name, ID, contains("Count"), starts_with("Total"))
#> # A tibble: 26 × 5
#>    Name             ID    Quiz_1_Count_Resp_2 Quiz_2_Count_Resp_3 Total_5
#>    <chr>            <chr>               <int>               <int>   <int>
#>  1 Lance Xiong      004                     2                   3       5
#>  2 Sydney Halamicek 002                     2                   3       5
#>  3 Itzel Palomino   016                     1                   3       4
#>  4 Hakam el-Farooq  001                     2                   3       5
#>  5 Hamood al-Farha  012                     2                   3       5
#>  6 Dominique Solis  007                     2                   3       5
#>  7 Zhjade Alarid    009                     2                   2       4
#>  8 Jordan Tan       013                     2                   2       4
#>  9 Kevin Vasquez    025                     2                   3       5
#> 10 Angela Carrillo  018                     2                   2       4
#> # … with 16 more rows
…
Return data frame with Grade_x columns (and may be Qx)

Combine & Adjust Grades of Quiz 1

You can filter grade by choose_grade parameter and readjust maximum grade to any score by new_max_grade parameter.

grades_ls$Quiz_1 %>%
  combine_grades(
    id_regex = "[:digit:]+",
    choose_grade = "max", # Choose only maximum grade of each student
    new_max_grade = 100 # Adjust maximum grade to 100
  ) %>%
  select(Name, ID, starts_with("G"), starts_with("Q"))
#> # A tibble: 26 × 11
#>    Name            ID    Grade…¹    Q1    Q2    Q3    Q4    Q5    Q6    Q7    Q8
#>    <chr>           <chr>   <dbl> <dbl> <dbl> <dbl> <dbl> <dbl> <dbl> <dbl> <dbl>
#>  1 Jada Roquemore  017      94.7   2.6   2.6  23.7  21.1  21.1   2.6  10.5  10.5
#>  2 Ronin Ali       001      97.4   7.9   2.6  23.7  21.1  21.1   2.6   7.9  10.5
#>  3 Jerry Hoffpauir 002      94.7   2.6   2.6  23.7  21.1  21.1   2.6  10.5  10.5
#>  4 Nathan Babbitt  026     100     7.9   2.6  23.7  21.1  21.1   2.6  10.5  10.5
#>  5 Rohith Huynh    024     100     7.9   2.6  23.7  21.1  21.1   2.6  10.5  10.5
#>  6 Joy Ellis       013     100     7.9   2.6  23.7  21.1  21.1   2.6  10.5  10.5
#>  7 Jeremy Nelson   023      92.1   7.9   2.6  21.1  15.8  21.1   2.6  10.5  10.5
#>  8 Christopher Di… 003      94.7   2.6   2.6  23.7  21.1  21.1   2.6  10.5  10.5
#>  9 Israel Munoz    018     100     7.9   2.6  23.7  21.1  21.1   2.6  10.5  10.5
#> 10 Zubaida al-Att… 022     100     7.9   2.6  23.7  21.1  21.1   2.6  10.5  10.5
#> # … with 16 more rows, and abbreviated variable name ¹​Grade_100
…
